Cleaning diary data
…
data <- data %>% 
  filter(!row_number() %in% data_empty_rows)

Identify duplicates

255 duplicates (i.e., more than one survey on same day for one pid)

data %>% 
  group_by(pid, date) %>% 
  count() %>% 
   ungroup() %>% 
  filter(n > 1) %>% 
  arrange(desc(n))

# A tibble: 255 × 3
            pid date           n
          <dbl> <date>     <int>
 1 102322233822 2022-11-18     4
 2 101922110450 2022-11-01     3
 3 101922140746 2022-10-23     3
 4 101922140746 2022-10-26     3
 5 101922141125 2022-10-21     3
 6 101922210432 2022-10-24     3
 7 102022122815 2022-10-29     3
 8 102322233822 2022-11-15     3
 9 102622130043 2022-11-16     3
10 102722110650 2022-11-19     3
# ℹ 245 more rows
…
data <- data %>% 
  filter(!response_id %in% duplicate_ids)

Left with 197 duplicate surveys

data %>% 
  group_by(pid, date) %>% 
  count() %>% 
   ungroup() %>% 
  filter(n > 1) %>% 
  arrange(desc(n))

# A tibble: 197 × 3
            pid date           n
          <dbl> <date>     <int>
 1 102322233822 2022-11-18     4
 2 101922110450 2022-11-01     3
 3 101922140746 2022-10-23     3
 4 101922140746 2022-10-26     3
 5 101922141125 2022-10-21     3
 6 101922210432 2022-10-24     3
 7 102022122815 2022-10-29     3
 8 102322233822 2022-11-15     3
 9 102622130043 2022-11-16     3
10 101922110450 2022-10-24     2
# ℹ 187 more rows
…
Check for duplicate surveys with no data other than screening questions for branching

data_empty <- duplicates %>% 
  select(au_db2:e4) 

data_empty_rows <- which(rowSums(is.na(data_empty)) == ncol(data_empty))

duplicates %>% 
  filter(row_number() %in% data_empty_rows) %>%
  group_by(nid, date) %>%
  count() %>% 
  arrange(desc(n))

# A tibble: 40 × 3
# Groups:   nid, date [40]
       nid date           n
     <dbl> <date>     <int>
 1 5140108 2022-11-16     2
 2 1083617 2022-11-12     1
 3 1215369 2022-11-06     1
 4 1345823 2022-11-12     1
 5 1636530 2022-10-31     1
 6 2148675 2022-11-07     1
 7 2531227 2022-11-01     1
 8 3187228 2022-10-25     1
 9 3279665 2022-11-03     1
10 3313178 2022-10-27     1
# ℹ 30 more rows
…
data <- data %>% 
  filter(!response_id %in% response_ids)

159 duplicates left

data %>% 
  group_by(pid, date) %>% 
  count() %>% 
   ungroup() %>% 
  filter(n > 1) %>% 
  arrange(desc(n))

# A tibble: 159 × 3
            pid date           n
          <dbl> <date>     <int>
 1 102322233822 2022-11-18     4
 2 101922110450 2022-11-01     3
 3 101922140746 2022-10-23     3
 4 101922140746 2022-10-26     3
 5 101922141125 2022-10-21     3
 6 102322233822 2022-11-15     3
 7 101922110450 2022-10-24     2
 8 101922110450 2022-10-30     2
 9 101922110450 2022-11-07     2
10 101922130136 2022-10-20     2
# ℹ 149 more rows
…
Duplicates by nid

# total duplicates
duplicates %>% 
  group_by(nid) %>% 
  count() %>% 
  arrange(desc(n))

# A tibble: 92 × 2
# Groups:   nid [92]
       nid     n
     <dbl> <int>
 1 9478839    18
 2 6208949    17
 3 5462581    10
 4 8617355     9
 5 7459356     8
 6 8057415     8
 7 3256800     6
 8 3279665     6
 9 4101260     6
10 6165526     6
# ℹ 82 more rows

# days with duplicates
duplicates %>% 
  group_by(nid, date) %>%
  slice(1) %>% 
  group_by(nid) %>% 
  count() %>% 
  arrange(desc(n))

# A tibble: 92 × 2
# Groups:   nid [92]
       nid     n
     <dbl> <int>
 1 9478839     9
 2 6208949     7
 3 5462581     4
 4 7459356     4
 5 8057415     4
 6 8617355     4
 7 3256800     3
 8 3279665     3
 9 4101260     3
10 6165526     3
# ℹ 82 more rows
…
